^C:\USERS\NOAMC\ONEDRIVE\DESKTOP\C++\INHERITANCE\STREAM\OUTSTREAM.CPP
/c /ZI /JMC /nologo /W3 /WX- /diagnostics:classic /sdl /Od /D _MBCS /Gm- /EHsc /RTC1 /MDd /GS /fp:precise /Zc:wchar_t /Zc:forScope /Zc:inline /Fo"X64\DEBUG\\" /Fd"X64\DEBUG\VC141.PDB" /Gd /TP /FC C:\USERS\NOAMC\ONEDRIVE\DESKTOP\C++\INHERITANCE\STREAM\OUTSTREAM.CPP
^C:\USERS\NOAMC\ONEDRIVE\DESKTOP\C++\INHERITANCE\STREAM\OUTSTREAMENCRYPTED.CPP
/c /ZI /JMC /nologo /W3 /WX- /diagnostics:classic /sdl /Od /D _MBCS /Gm- /EHsc /RTC1 /MDd /GS /fp:precise /Zc:wchar_t /Zc:forScope /Zc:inline /Fo"X64\DEBUG\\" /Fd"X64\DEBUG\VC141.PDB" /Gd /TP /FC C:\USERS\NOAMC\ONEDRIVE\DESKTOP\C++\INHERITANCE\STREAM\OUTSTREAMENCRYPTED.CPP
^C:\USERS\NOAMC\ONEDRIVE\DESKTOP\C++\INHERITANCE\STREAM\FILESTREAM.CPP
/c /ZI /JMC /nologo /W3 /WX- /diagnostics:classic /sdl /Od /D _MBCS /Gm- /EHsc /RTC1 /MDd /GS /fp:precise /Zc:wchar_t /Zc:forScope /Zc:inline /Fo"X64\DEBUG\\" /Fd"X64\DEBUG\VC141.PDB" /Gd /TP /FC C:\USERS\NOAMC\ONEDRIVE\DESKTOP\C++\INHERITANCE\STREAM\FILESTREAM.CPP
^C:\USERS\NOAMC\ONEDRIVE\DESKTOP\C++\INHERITANCE\STREAM\LOGGER.CPP
/c /ZI /JMC /nologo /W3 /WX- /diagnostics:classic /sdl /Od /D _MBCS /Gm- /EHsc /RTC1 /MDd /GS /fp:precise /Zc:wchar_t /Zc:forScope /Zc:inline /Fo"X64\DEBUG\\" /Fd"X64\DEBUG\VC141.PDB" /Gd /TP /FC C:\USERS\NOAMC\ONEDRIVE\DESKTOP\C++\INHERITANCE\STREAM\LOGGER.CPP
^C:\USERS\NOAMC\ONEDRIVE\DESKTOP\C++\INHERITANCE\STREAM\MAIN.CPP
/c /ZI /JMC /nologo /W3 /WX- /diagnostics:classic /sdl /Od /D _MBCS /Gm- /EHsc /RTC1 /MDd /GS /fp:precise /Zc:wchar_t /Zc:forScope /Zc:inline /Fo"X64\DEBUG\\" /Fd"X64\DEBUG\VC141.PDB" /Gd /TP /FC C:\USERS\NOAMC\ONEDRIVE\DESKTOP\C++\INHERITANCE\STREAM\MAIN.CPP
^C:\USERS\NOAMC\ONEDRIVE\DESKTOP\C++\INHERITANCE\SL\SOURCE.CPP
/c /ZI /JMC /nologo /W3 /WX- /diagnostics:classic /sdl /Od /D _MBCS /Gm- /EHsc /RTC1 /MDd /GS /fp:precise /Zc:wchar_t /Zc:forScope /Zc:inline /Fo"X64\DEBUG\\" /Fd"X64\DEBUG\VC141.PDB" /Gd /TP /FC C:\USERS\NOAMC\ONEDRIVE\DESKTOP\C++\INHERITANCE\SL\SOURCE.CPP
