^C:\USERS\NOAMC\ONEDRIVE\DESKTOP\C++\INHERITANCE\STREAM\MAIN.CPP|C:\USERS\NOAMC\ONEDRIVE\DESKTOP\C++\INHERITANCE\STREAM\OUTSTREAM.CPP
C:\USERS\NOAMC\ONEDRIVE\DESKTOP\C++\INHERITANCE\STREAM\X64\RELEASE\VC141.PDB
C:\USERS\NOAMC\ONEDRIVE\DESKTOP\C++\INHERITANCE\STREAM\X64\RELEASE\MAIN.OBJ
C:\USERS\NOAMC\ONEDRIVE\DESKTOP\C++\INHERITANCE\STREAM\X64\RELEASE\OUTSTREAM.OBJ
^C:\USERS\NOAMC\ONEDRIVE\DESKTOP\C++\INHERITANCE\STREAM\OUTSTREAM.CPP
C:\USERS\NOAMC\ONEDRIVE\DESKTOP\C++\INHERITANCE\STREAM\X64\RELEASE\VC141.PDB
^C:\USERS\NOAMC\ONEDRIVE\DESKTOP\C++\INHERITANCE\STREAM\MAIN.CPP
C:\USERS\NOAMC\ONEDRIVE\DESKTOP\C++\INHERITANCE\STREAM\X64\RELEASE\VC141.PDB
C:\USERS\NOAMC\ONEDRIVE\DESKTOP\C++\INHERITANCE\STREAM\X64\RELEASE\MAIN.OBJ
