^C:\USERS\NOAMC\ONEDRIVE\DESKTOP\C++\INHERITANCE\STREAM\X64\RELEASE\MAIN.OBJ|C:\USERS\NOAMC\ONEDRIVE\DESKTOP\C++\INHERITANCE\STREAM\X64\RELEASE\OUTSTREAM.OBJ
C:\USERS\NOAMC\ONEDRIVE\DESKTOP\C++\INHERITANCE\X64\RELEASE\STREAM.EXE
C:\USERS\NOAMC\ONEDRIVE\DESKTOP\C++\INHERITANCE\X64\RELEASE\STREAM.PDB
